…
``` r
library(tidyverse) # load tidyverse packages, including ggplot2
library(knitr) # load functions for formatting tables

# get data from rcfss package
# install latest version if not already installed
# devtools::install_github("uc-cfss/rcfss")
library(rcfss)

# load the data
data("mass_shootings")
mass_shootings
```

    ## # A tibble: 114 x 14
    ##    case   year month   day location summary fatalities injured total_victims
    ##    <chr> <dbl> <chr> <int> <chr>    <chr>        <dbl>   <dbl>         <dbl>
    ##  1 Dayt…  2019 Aug       4 Dayton,… "PENDI…          9      27            36
    ##  2 El P…  2019 Aug       3 El Paso… "PENDI…         20      26            46
    ##  3 Gilr…  2019 Jul      28 Gilroy,… "Santi…          3      12            15
    ##  4 Virg…  2019 May      31 Virgini… "DeWay…         12       4            16
    ##  5 Harr…  2019 Feb      15 Aurora,… "Gary …          5       6            11
    ##  6 Penn…  2019 Jan      24 State C… "Jorda…          3       1             4
    ##  7 SunT…  2019 Jan      23 Sebring… "Zephe…          5       0             5
    ##  8 Merc…  2018 Nov      19 Chicago… "Juan …          3       0             3
    ##  9 Thou…  2018 Nov       7 Thousan… "Ian D…         12      22            34
    ## 10 Tree…  2018 Oct      27 Pittsbu… "Rober…         11       6            17
    ## # … with 104 more rows, and 5 more variables: location_type <chr>, male <lgl>,
    ## #   age_of_shooter <dbl>, race <chr>, prior_mental_illness <chr>
…
